…
``` r
ess_final %>% 
  group_by(cntry) %>%
  count(is.na(vote))
```

    ## # A tibble: 31 x 3
    ## # Groups:   cntry [31]
    ##    cntry `is.na(vote)`     n
    ##    <chr> <lgl>         <int>
    ##  1 AT    FALSE          2010
    ##  2 BE    FALSE          1766
    ##  3 BG    FALSE          2260
    ##  4 CH    FALSE          1525
    ##  5 CY    FALSE          1116
    ##  6 CZ    FALSE          2300
    ##  7 DE    FALSE          2852
    ##  8 DK    FALSE          1502
    ##  9 EE    FALSE          2019
    ## 10 ES    FALSE          1925
    ## # ... with 21 more rows
…
    #Cyprus; 
    vote == "Progressive Party of Working People (AKEL)" ~ "Liberal Populism",
    vote == "The Cyprus Green Party" ~ "Liberal Populism",
    
    is.na(vote) ~ NA_character_,
    TRUE ~ "Establishment"
   ))

ess_final %>% 
  group_by(cntry, populism) %>%
  tally %>%
  count(cntry)
```

    ## # A tibble: 31 x 2
    ## # Groups:   cntry [31]
    ##    cntry    nn
    ##    <chr> <int>
    ##  1 AT        2
    ##  2 BE        3
    ##  3 BG        2
    ##  4 CH        2
    ##  5 CY        2
    ##  6 CZ        3
    ##  7 DE        1
    ##  8 DK        3
    ##  9 EE        2
    ## 10 ES        2
    ## # ... with 21 more rows
…
